{
  "name": "Alchemical Cartridge (Toxin)",
  "permission": {
    "default": 0
  },
  "type": "loot",
  "data": {
    "description": {
      "value": "<p><strong>Source</strong> <em>People of the Wastes pg. 15</em></p>\n<h3 class=\"framing\">Statistics</h3>\n<p><strong>Cost</strong> 100 gp <strong>Weight</strong> -</p>\n<p><strong>Category</strong> Ammunition; <strong>Proficiency</strong> Exotic</p>\n<h3 class=\"framing\">Description</h3>\n<p>An alchemical cartridge is a prepared bundle of black powder with a bullet or pellets, sometimes with more exotic material added, which is then wrapped in paper or cloth and sealed with beeswax, lard, or tallow. There are many types of alchemical cartridges, the simplest being the paper cartridge-a simple mix of black powder and either pellets or a bullet. Alchemical cartridges make loading a firearm easier, reducing the time to load a firearm by one step (a full-round action becomes a standard action, a standard action becomes a move action, and a move action becomes a free action), but they tend to be unstable. The misfire value of a weapon firing an alchemical cartridge increases as listed in each entry.</p>\n<p>&nbsp;</p>\n<p><strong><em>Toxic Cartridge</em></strong>: (<strong>Source</strong> <em>People of the Wastes pg. 15</em>) A toxic cartridge can be used only in early or advanced firearms with the scatter weapon quality. To use a toxic cartridge, make a scattering shot against an AC of 5. If you succeed, you create a cone of burning toxic gas that lasts for 1 rounds, after which the gas dissipates. Any creature within this area when it is created or any creature that enters the gas while it is active must succeed at a DC 15 Fortitude save or become nauseated for 1d2 rounds. Being affected by the gas multiple times lengthens the duration of the sickened condition. In addition, any creature that begins its turn in the area takes 1d6 points of fire damage. If your attack results in a misfire that causes your firearm to explode, the area of the cloud is instead centered on one corner of your square (your choice), with a radius equal to the firearm's misfire burst size. Firing this cartridge increases the firearm's misfire value by 1.</p>",
      "chat": "",
      "unidentified": ""
    },
    "tags": [],
    "quantity": 1,
    "weight": 0,
    "price": 100,
    "identified": true,
    "hp": {
      "max": 1,
      "value": 1
    },
    "hardness": 5,
    "carried": true,
    "unidentified": {
      "price": 0,
      "name": ""
    },
    "identifiedName": "Alchemical Cartridge (Toxin)",
    "cl": 0,
    "aura": {
      "custom": false,
      "school": ""
    },
    "changes": [],
    "changeFlags": {
      "loseDexToAC": false,
      "noEncumbrance": false,
      "mediumArmorFullSpeed": false,
      "heavyArmorFullSpeed": false
    },
    "contextNotes": [],
    "links": {
      "children": []
    },
    "tag": "alchemicalCartridgeToxin",
    "useCustomTag": false,
    "flags": {
      "boolean": [],
      "dictionary": []
    },
    "subType": "ammo",
    "equipped": false,
    "damage": {
      "parts": [],
      "critParts": []
    }
  },
  "flags": {},
  "img": "icons/tools/laboratory/powder-red.webp",
  "effects": [],
  "_id": "oYd6754BEmKiknXd"
}