{
  "_id": "a7bQ5AaYKYPFvOBE",
  "name": "Featherweight Dart",
  "permission": {
    "default": 0
  },
  "type": "loot",
  "data": {
    "description": {
      "value": "<p><strong>Source</strong> <em>Ultimate Intrigue pg. 232</em></p><h3 class=\"framing\">Statistics</h3><p><strong>Cost</strong> 1 gp (10) <strong>Weight</strong> -</p><p><strong>Category</strong> Ammunition; <strong>Proficiency</strong> Ammunition</p><h3 class=\"framing\">Description</h3><p>These extremely small and lightweight darts function like blowgun darts, except they are used to deliver poisons surreptitiously instead of dealing damage. When you hit with a dart, the poison is injected into the target while the dart breaks off and falls away, leaving the wound hard to spot. Any amount of damage reduction, hardness, or similar protection prevents the featherweight dart from delivering its injected poison. Anyone examining the target must succeed at a DC 20 Perception check to find the puncture wound, while finding the dart itself at the location where it fell requires a successful DC 15 Perception check. This ammunition can be used in both blowguns and wrist launchers. </p>",
      "chat": "",
      "unidentified": ""
    },
    "tags": [],
    "quantity": 1,
    "weight": 0,
    "price": 1,
    "identified": true,
    "hp": {
      "max": 1,
      "value": 1
    },
    "hardness": 5,
    "carried": true,
    "unidentified": {
      "price": 0,
      "name": ""
    },
    "identifiedName": "Featherweight Dart",
    "cl": 0,
    "aura": {
      "custom": false,
      "school": ""
    },
    "changes": [],
    "changeFlags": {
      "loseDexToAC": false,
      "noEncumbrance": false,
      "mediumArmorFullSpeed": false,
      "heavyArmorFullSpeed": false,
      "noStr": false,
      "noDex": false,
      "oneInt": false,
      "oneWis": false,
      "oneCha": false
    },
    "contextNotes": [],
    "links": {
      "children": []
    },
    "tag": "featherweightDart",
    "useCustomTag": false,
    "flags": {
      "boolean": [],
      "dictionary": []
    },
    "subType": "misc",
    "equipped": true,
    "damage": {
      "parts": [],
      "critParts": []
    },
    "properties": {},
    "weaponData": {},
    "bonus": {},
    "damageType": {},
    "damage2": {},
    "damage2Type": {},
    "uses": {
      "value": 0,
      "max": 0
    }
  },
  "flags": {},
  "img": "icons/weapons/ammunition/arrows-bodkin-yellow-red.webp",
  "effects": []
}