{
  "name": "Harvester",
  "permission": {
    "default": 0
  },
  "type": "weapon",
  "data": {
    "description": {
      "value": "<p><strong>Source</strong> <em>Belkzen, Hold of the Orc Hordes pg. 39</em></p><h3 class=\"framing\">Statistics</h3><p><strong>Cost</strong> 800 gp <strong>Weight</strong> -</p><p><strong>Damage</strong> 2d8; <strong>Critical</strong> x4; <strong>Range</strong> -; <strong>Type</strong> S</p><p><strong>Crew</strong> 4; <strong>Aim</strong> 0; <strong>Load</strong> 0; <strong>Speed</strong> 0 ft.</p><p><strong>Category</strong> Close Assault; <strong>Proficiency</strong> Siege Engine</p><h3 class=\"framing\">Description</h3><p>A variety of scythe-like blades extend from two sides of this wheeled machine. When it's pulled-typically by an aurochs or enslaved giants-the wheels' rotation causes the blades to slash indiscriminately. Each round the harvester moves, it makes a melee attack with a +10 modifier against any adjacent creature it passes; it deals 2d8 points of damage to those it hits. Multiple harvesters can be strung together. The crew required for a train of harvesters is equal to the total crew of the individual machines. Adjacent creatures are attacked by each individual harvester that passes them. A harvester has a hardness of 5 and 50 hit points.</p><p></p><p>A harvester is a Large siege engine.</p>",
      "chat": "",
      "unidentified": ""
    },
    "tags": [],
    "quantity": 1,
    "weight": 0,
    "price": 800,
    "identified": true,
    "hp": {
      "max": 10,
      "value": 10
    },
    "hardness": 10,
    "carried": true,
    "unidentified": {
      "price": 0,
      "name": ""
    },
    "identifiedName": "",
    "cl": 0,
    "aura": {
      "custom": false,
      "school": ""
    },
    "changes": [],
    "changeFlags": {
      "loseDexToAC": false,
      "noEncumbrance": false,
      "mediumArmorFullSpeed": false,
      "heavyArmorFullSpeed": false
    },
    "contextNotes": [],
    "links": {
      "children": []
    },
    "tag": "harvester",
    "useCustomTag": false,
    "flags": {
      "boolean": [],
      "dictionary": []
    },
    "equipped": true,
    "masterwork": false,
    "nonlethal": false,
    "weaponType": "misc",
    "weaponSubtype": "other",
    "properties": {},
    "enh": null,
    "weaponData": {
      "damageRoll": "2d8",
      "damageType": "S",
      "critRange": "NULL",
      "critMult": "4",
      "range": 0,
      "attackFormula": "",
      "damageFormula": "",
      "size": "med",
      "maxRangeIncrements": 1
    },
    "broken": false,
    "bonus": {
      "value": 0,
      "_deprecated": true
    },
    "damageType": {
      "value": "",
      "_deprecated": true
    },
    "damage2": {
      "value": "",
      "_deprecated": true
    },
    "damage2Type": {
      "value": "",
      "_deprecated": true
    },
    "damage": {
      "parts": [],
      "critParts": [],
      "nonCritParts": []
    },
    "uses": {
      "value": 0,
      "max": 0
    }
  },
  "flags": {},
  "img": "systems/pf1/icons/skills/weapon_12.jpg",
  "effects": [],
  "_id": "2enTpUyXaDcCqALb"
}