{
  "name": "Heartstake Bolts (5)",
  "permission": {
    "default": 0
  },
  "type": "loot",
  "data": {
    "description": {
      "value": "<p><strong>Source</strong> <em>Advanced Race Guide pg. 99</em></p>\n<h3 class=\"framing\"><img style=\"margin: 3px 3px 0px 3px;\" title=\"PFS Legal\" src=\"https://www.aonprd.com/images/PathfinderSocietySymbol.gif\" />Statistics</h3>\n<p><strong>Cost</strong> 100 gp <strong>Weight</strong> 3 lbs.</p>\n<p><strong>Category</strong> Ammunition; <strong>Proficiency</strong> Ammunition</p>\n<h3 class=\"framing\">Description</h3>\n<p>Specially crafted from solid darkwood, heartstake bolts are specifically designed to slay vampires. A heartstake bolt can be fired from any crossbow, but it imposes a -2 penalty on the attack roll and halves the range increment of the weapon. A vampire struck with a heartstake bolt takes the normal damage but must also succeed at a DC 20 Fortitude saving throw or fall to the ground helpless for 1 round.</p>\n<p>While the vampire is helpless in this manner, a creature can attempt to use the heartstake bolt to finish off the vampire by driving it through the vampire's heart as a full-round action. Once the debilitating effect of the heartstake bolt has ended, the vampire can pull out the bolt as a move action. A vampire slain with a heartstake bolt is subject to the rules and limitations of slaying a vampire with a wooden stake as described under vampire weaknesses .</p>\n<p>&nbsp;</p>\n<p>A heartstake bolt deals normal damage for the crossbow of its type.</p>",
      "chat": "",
      "unidentified": ""
    },
    "tags": [],
    "quantity": 5,
    "weight": 30,
    "price": 100,
    "identified": true,
    "hp": {
      "max": 1,
      "value": 1
    },
    "hardness": 5,
    "carried": true,
    "unidentified": {
      "price": 0,
      "name": ""
    },
    "identifiedName": "Heartstake Bolts (5)",
    "cl": 0,
    "aura": {
      "custom": false,
      "school": ""
    },
    "changes": [],
    "changeFlags": {
      "loseDexToAC": false,
      "noEncumbrance": false,
      "mediumArmorFullSpeed": false,
      "heavyArmorFullSpeed": false
    },
    "contextNotes": [],
    "links": {
      "children": []
    },
    "tag": "heartstakeBolts5",
    "useCustomTag": false,
    "flags": {
      "boolean": [],
      "dictionary": []
    },
    "subType": "ammo",
    "equipped": false,
    "damage": {
      "parts": [],
      "critParts": []
    }
  },
  "flags": {},
  "img": "icons/weapons/ammunition/arrows-broadhead-white.webp",
  "effects": [],
  "_id": "6hzQCxhCoUEAQmo6"
}