{
  "_id": "YblsiTF25I6uG9jN",
  "name": "Lodestone Arrow",
  "permission": {
    "default": 0
  },
  "type": "loot",
  "data": {
    "description": {
      "value": "<p>&nbsp;</p>\n<p><strong>Source</strong> <em>Alchemy Manual pg. 21</em>, <em>Elves of Golarion pg. 22</em><br /><strong>Price</strong> 10 gp; <strong>Weight</strong> -<br /><strong>Category</strong> Alchemical Weapons</p>\n<h2 class=\"framing\">Description</h2>\n<p>This heavy iron arrowhead is sealed with an alchemical resin. Pulling a small string (a move action) breaks the seal and triggers a reaction in the arrowhead, greatly increasing its magnetic properties.</p>\n<p>You gain a <strong>+4 circumstance bonus on attack rolls</strong> when firing a lodestone arrow at a target wearing metal armor or a target made of metal, but the magnetized arrow <strong>deals only half damage</strong> on a successful hit.</p>\n<p>The increased magnetism fades 1 round after you activate a lodestone arrow, after which it becomes a normal arrow.</p>\n<h2 class=\"framing\">Alchemical Recipe</h2>\n<p><strong>Recipe</strong> (8 myrrh + 6 salt + 4 silver)/exposure; <strong>Craft</strong> 25<br /><strong>Time</strong> 1 hour; <strong>Tools</strong> -; <strong>Type</strong> alchemical weapon</p>",
      "chat": "",
      "unidentified": ""
    },
    "tags": [],
    "quantity": 1,
    "weight": 0,
    "price": 10,
    "identified": true,
    "hp": {
      "max": 1,
      "value": 1
    },
    "hardness": 5,
    "carried": true,
    "unidentified": {
      "price": 0,
      "name": ""
    },
    "identifiedName": "Lodestone Arrow",
    "cl": 0,
    "aura": {
      "custom": false,
      "school": ""
    },
    "changes": [],
    "changeFlags": {
      "loseDexToAC": false,
      "noEncumbrance": false,
      "mediumArmorFullSpeed": false,
      "heavyArmorFullSpeed": false,
      "noStr": false,
      "noDex": false,
      "oneInt": false,
      "oneWis": false,
      "oneCha": false
    },
    "contextNotes": [],
    "links": {
      "children": []
    },
    "tag": "lodestoneArrow",
    "useCustomTag": false,
    "flags": {
      "boolean": [],
      "dictionary": []
    },
    "subType": "ammo",
    "equipped": false,
    "damage": {
      "parts": [],
      "critParts": []
    },
    "properties": {},
    "weaponData": {},
    "bonus": {},
    "damageType": {},
    "damage2": {},
    "damage2Type": {},
    "uses": {
      "value": 0,
      "max": 0
    }
  },
  "flags": {},
  "img": "systems/pf1/icons/items/weapons/arrow-special.PNG",
  "effects": []
}