{
  "name": "Tube Arrow Shooter",
  "permission": {
    "default": 0
  },
  "type": "weapon",
  "data": {
    "description": {
      "value": "<p><strong>Source</strong> <em>Ranged Tactics Toolbox pg. 0</em>, <em>Ultimate Combat pg. 134</em>, <em>Ultimate Equipment pg. 19</em></p><h3 class=\"framing\"><img src=\"https://www.aonprd.com/images/PathfinderSocietySymbol.gif\" title=\"PFS Legal\" style=\"margin:3px 3px 0px 3px;\">Statistics</h3><p><strong>Cost</strong> 3 gp <strong>Weight</strong> 1/2 lb.</p><p><strong>Damage</strong> 1d3 (small), 1d4 (medium); <strong>Critical</strong> x2; <strong>Range</strong> 40 ft.; <strong>Type</strong> P; <strong>Special</strong> -</p><p><strong>Category</strong> Ranged; <strong>Proficiency</strong> Martial</p><p><strong>Weapon Groups</strong> Crossbows</p><h3 class=\"framing\">Description</h3><p>This weapon consists of a small metal tube hidden within a sleeve; the tube holds a short, spring-loaded bamboo shaft. You gain a +2 bonus on Sleight of Hand checks made to conceal a tube arrow shooter on your body. Releasing the fastener allows the spring to force the arrow out. Once a shaft is fired, the tube must be reloaded before it can be used again. Reloading a tube is a full-round action, or a standard action if the wielder has the Rapid Reload feat.</p>",
      "chat": "",
      "unidentified": ""
    },
    "tags": [],
    "quantity": 1,
    "weight": 0.5,
    "price": 3,
    "identified": true,
    "hp": {
      "max": 5,
      "value": 5
    },
    "hardness": 5,
    "carried": true,
    "unidentified": {
      "price": 0,
      "name": ""
    },
    "identifiedName": "Tube Arrow Shooter",
    "cl": 0,
    "aura": {
      "custom": false,
      "school": ""
    },
    "changes": [],
    "changeFlags": {
      "loseDexToAC": false,
      "noEncumbrance": false,
      "mediumArmorFullSpeed": false,
      "heavyArmorFullSpeed": false
    },
    "contextNotes": [],
    "links": {
      "children": []
    },
    "tag": "tubeArrowShooter",
    "useCustomTag": false,
    "flags": {
      "boolean": [],
      "dictionary": []
    },
    "equipped": true,
    "masterwork": false,
    "nonlethal": false,
    "weaponType": "martial",
    "weaponSubtype": "ranged",
    "properties": {
      "blc": false,
      "brc": false,
      "dbl": false,
      "dis": false,
      "fin": false,
      "frg": false,
      "grp": false,
      "imp": false,
      "mnk": false,
      "nnl": false,
      "prf": false,
      "rch": false,
      "snd": false,
      "thr": false,
      "trp": false,
      "dea": false,
      "dst": false
    },
    "enh": null,
    "weaponData": {
      "damageRoll": "1d4",
      "damageType": "P",
      "critRange": 20,
      "critMult": 2,
      "range": 40,
      "attackFormula": "",
      "damageFormula": "",
      "size": "med",
      "maxRangeIncrements": 1
    },
    "broken": false,
    "bonus": {
      "value": 0,
      "_deprecated": true
    },
    "damageType": {
      "value": "",
      "_deprecated": true
    },
    "damage2": {
      "value": "",
      "_deprecated": true
    },
    "damage2Type": {
      "value": "",
      "_deprecated": true
    },
    "uses": {
      "value": 0,
      "max": 0
    }
  },
  "flags": {},
  "img": "icons/weapons/thrown/dagger-simple-wood.webp",
  "effects": [],
  "_id": "rXxv6Q9b6Px3qhFE"
}